…
    ## See spec(...) for full column specifications.

``` r
sample_table
```

    ## # A tibble: 24 x 29
    ##    AvgSpotLen_l BioSample_s Experiment_s MBases_l MBytes_l Run_s SRA_Sample_s
    ##           <dbl> <chr>       <chr>           <dbl>    <dbl> <chr> <chr>       
    ##  1           50 SAMN064461… SRX2588583       1727     1713 SRR5… SRS2001779  
    ##  2           50 SAMN064462… SRX2588584       1776     1750 SRR5… SRS2001780  
    ##  3           50 SAMN064462… SRX2588585       1638     1627 SRR5… SRS2001781  
    ##  4           50 SAMN064462… SRX2588586       1310     1307 SRR5… SRS2001782  
    ##  5           50 SAMN064462… SRX2588587       1560     1554 SRR5… SRS2001783  
    ##  6           50 SAMN064462… SRX2588588       1773     1754 SRR5… SRS2001784  
    ##  7           50 SAMN064462… SRX2588589       1533      957 SRR5… SRS2001785  
    ##  8           50 SAMN064462… SRX2588590       1545      959 SRR5… SRS2001786  
    ##  9           50 SAMN064462… SRX2588591       1539     1535 SRR5… SRS2001787  
    ## 10           50 SAMN064462… SRX2588592       1505     1493 SRR5… SRS2001788  
    ## # … with 14 more rows, and 22 more variables: Sample_Name_s <chr>,
    ## #   gender_s <chr>, source_name_s <chr>, tissue_region_s <chr>,
    ## #   treatment_s <chr>, Assay_Type_s <chr>, BioProject_s <chr>,
    ## #   Center_Name_s <chr>, Consent_s <chr>, InsertSize_l <dbl>,
    ## #   Instrument_s <chr>, LibraryLayout_s <chr>, LibrarySelection_s <chr>,
    ## #   LibrarySource_s <chr>, LoadDate_s <date>, Organism_s <chr>,
    ## #   Platform_s <chr>, ReleaseDate_s <date>, SRA_Study_s <chr>, age_s <chr>,
    ## #   cell_type_s <chr>, tissue_s <chr>
…
