…
To take a closer look at the data entries we can look at the data. As a
result of the earlier data manipulations some of the variables have been
changed from binary representations to character representations.

``` r
project_data
```

    ## # A tibble: 1,104 x 16
    ##    Group `Genus species` `brain mass` `Ref. brain mas… `body mass`
    ##    <chr> <chr>                  <dbl> <chr>                  <dbl>
    ##  1 Afro… Chrysochloris …        0.7   Bauchot and Ste…        49  
    ##  2 Afro… Chrysochloris …        0.736 Bauchot and Ste…        39.1
    ##  3 Afro… Echinops telfa…        0.580 Isler and van S…        72.4
    ##  4 Afro… Hemicentetes s…        0.736 Bauchot and Ste…        76.6
    ##  5 Afro… Microgale dobs…        0.558 Isler and van S…        37.9
    ##  6 Afro… Microgale tala…        0.763 Bauchot and Ste…        42.3
    ##  7 Afro… Micropotamogal…        0.8   Stephan et al 1…        64.2
    ##  8 Afro… Oryzorictes ho…        0.580 Bauchot and Ste…        44.2
    ##  9 Afro… Potamogale vel…        4.25  Bauchot and Ste…       677  
    ## 10 Afro… Setifer setosus        1.59  Isler and van S…       234. 
    ## # … with 1,094 more rows, and 11 more variables: `Ref. body mass` <chr>,
    ## #   hibernation <chr>, `Ref. hibernation` <chr>, diurnality <dbl>, `Ref.
    ## #   diurnality` <chr>, `substrate use` <chr>, `Ref. substrate use` <chr>,
    ## #   diet <chr>, `Ref. diet` <chr>, `mid-latitude of geographical
    ## #   distribution` <dbl>, `Ref. mid-latitude of geographical distribution` <chr>
…
