…
``` r
de_transcript <- alltranscriptresults %>% 
  dplyr::select(Pipeline = column_label, ID) %>%
  dplyr::filter(grepl("Sailfish", Pipeline))

de_transcript
```

    ## # A tibble: 1,087 x 2
    ##    Pipeline                         ID         
    ##    <chr>                            <chr>      
    ##  1 Sailfish.DESeq2.transcripts.down FBtr0085105
    ##  2 Sailfish.DESeq2.transcripts.down FBtr0073120
    ##  3 Sailfish.DESeq2.transcripts.down FBtr0339391
    ##  4 Sailfish.DESeq2.transcripts.down FBtr0086613
    ##  5 Sailfish.DESeq2.transcripts.down FBtr0304990
    ##  6 Sailfish.DESeq2.transcripts.down FBtr0337020
    ##  7 Sailfish.DESeq2.transcripts.down FBtr0083467
    ##  8 Sailfish.DESeq2.transcripts.down FBtr0073974
    ##  9 Sailfish.DESeq2.transcripts.down FBtr0084465
    ## 10 Sailfish.DESeq2.transcripts.down FBtr0305263
    ## # … with 1,077 more rows
…
